<svg width="94" height="19" viewBox="0 0 94 19" fill="none" xmlns="http://www.w3.org/2000/svg">
<path d="M0.892578 14.6641H3.74414V8.3457C3.74414 7.17383 4.47656 6.35352 5.56055 6.35352C6.61523 6.35352 7.25 7.01758 7.25 8.14062V14.6641H9.99414V8.30664C9.99414 7.14453 10.707 6.35352 11.791 6.35352C12.8945 6.35352 13.5 7.01758 13.5 8.22852V14.6641H16.3516V7.51562C16.3516 5.40625 14.9746 4 12.9238 4C11.3906 4 10.1406 4.83008 9.67188 6.14844H9.61328C9.26172 4.78125 8.20703 4 6.69336 4C5.26758 4 4.14453 4.83008 3.70508 6.08984H3.64648V4.19531H0.892578V14.6641Z" fill="#FFCD06"/>
<path d="M19.4473 18.541C22.1133 18.541 23.4316 17.5742 24.3203 14.8887L27.9238 4.19531H24.916L22.6992 12.3789H22.6406L20.4141 4.19531H17.2891L20.9316 14.6641C20.9414 14.7129 20.834 15.123 20.834 15.1719C20.6387 16.002 20.1211 16.334 19.0859 16.334C18.9785 16.334 18.4609 16.3242 18.3633 16.3047V18.5117C18.4609 18.5312 19.3398 18.541 19.4473 18.541Z" fill="#FFCD06"/>
<path d="M46.9219 14.3359V0.244141H43.5039L39.5 10.3613H39.4219L35.418 0.244141H32V14.3359H34.627V4.82422H34.7051L38.5332 14.3359H40.3887L44.2168 4.82422H44.2949V14.3359H46.9219Z" fill="#3A3A3A"/>
<path d="M52.2148 0.244141H49.2656V9.35547C49.2656 12.4609 51.5605 14.5703 55.1738 14.5703C58.7773 14.5703 61.0723 12.4609 61.0723 9.35547V0.244141H58.123V9.0625C58.123 10.8691 57.0586 12.0508 55.1738 12.0508C53.2793 12.0508 52.2148 10.8691 52.2148 9.0625V0.244141Z" fill="#3A3A3A"/>
<path d="M62.8887 10.3125C62.9766 12.9688 65.2129 14.5703 68.5723 14.5703C72.0977 14.5703 74.2559 12.832 74.2559 10.0781C74.2559 7.93945 72.957 6.73828 69.9785 6.14258L68.4844 5.83984C66.8242 5.50781 66.1406 4.9707 66.1406 4.10156C66.1406 3.06641 67.1172 2.38281 68.5723 2.38281C70.0566 2.38281 71.1016 3.10547 71.1992 4.30664H73.9824C73.9336 1.71875 71.8633 0 68.5723 0C65.4375 0 63.1914 1.70898 63.1914 4.28711C63.1914 6.38672 64.5684 7.73438 67.3809 8.29102L68.8652 8.58398C70.6328 8.94531 71.2969 9.47266 71.2969 10.4004C71.2969 11.4355 70.2227 12.1973 68.6504 12.1973C67.0488 12.1973 65.8574 11.4941 65.6719 10.3125H62.8887Z" fill="#3A3A3A"/>
<path d="M79.0117 14.3359V0.244141H76.0625V14.3359H79.0117Z" fill="#3A3A3A"/>
<path d="M87.5859 14.5703C91.043 14.5703 93.4551 12.5879 93.7871 9.44336H90.916C90.6035 11.1133 89.3438 12.1387 87.5957 12.1387C85.3398 12.1387 83.9238 10.2832 83.9238 7.27539C83.9238 4.30664 85.3594 2.44141 87.5859 2.44141C89.3047 2.44141 90.6328 3.57422 90.9062 5.30273H93.7773C93.5527 2.14844 90.9746 0 87.5859 0C83.5039 0 80.916 2.74414 80.916 7.28516C80.916 11.8359 83.4844 14.5703 87.5859 14.5703Z" fill="#3A3A3A"/>
</svg>
